Advanced Data Analysis Course - Pre-Course Refresher Exercises
…
sex

bill_length_mm

bill_depth_mm

body_mass_g

penguins_small <- penguins %>%
  dplyr::select(species, island, sex, bill_length_mm, bill_depth_mm, body_mass_g)

penguins_small

## # A tibble: 333 × 6
##    species island    sex    bill_length_mm bill_depth_mm body_mass_g
##    <chr>   <chr>     <chr>           <dbl>         <dbl>       <dbl>
##  1 Adelie  Torgersen MALE             39.1          18.7        3750
##  2 Adelie  Torgersen FEMALE           39.5          17.4        3800
##  3 Adelie  Torgersen FEMALE           40.3          18          3250
##  4 Adelie  Torgersen FEMALE           36.7          19.3        3450
##  5 Adelie  Torgersen MALE             39.3          20.6        3650
##  6 Adelie  Torgersen FEMALE           38.9          17.8        3625
##  7 Adelie  Torgersen MALE             39.2          19.6        4675
##  8 Adelie  Torgersen FEMALE           41.1          17.6        3200
##  9 Adelie  Torgersen MALE             38.6          21.2        3800
## 10 Adelie  Torgersen MALE             34.6          21.1        4400
## # ℹ 323 more rows
…
